[
    {   
        "id": 1,
        "judul": "HTML & CSS",
        "silabus": "7",
        "deskripsi": "Bahasa Markup untuk membuat dan mendesain sebuah tampilan website",
        "logo": "https://img.icons8.com/color/2x/html-5.png",
        "pagename": "html&css",
        "materi": [
            "Pengenalan dan setup dasar",
            "Membuat Tag, Heading, Paragraf, List, Hyperlink, dan Image",
            "Membuat Table dan Form",
            "Menghias Font, Text, dan Background",
            "Pengenalan Margin, Padding, dan Border",
            "Menggunakan Float atau Flex dan Position",
            "Shadow, Transitio, Animation, dan Transform"
        ]
    },
    {   
        "id": 2,
        "judul": "Javascript",
        "silabus": "8",
        "deskripsi": "Bahasa Pemrograman yang bisa digunakan untuk membuat web, server, hingga mobile app",
        "logo": "https://img.icons8.com/color/2x/javascript.png",
        "pagename": "javascript", 
        "materi": [
            "Pengenalan dan Hello World",
            "Variable, Tipe data dan Operator",
            "Pengulangan While dan For",
            "Pengkondisian IF, IF ELSE, ElSE IF, dan Swicth",
            "Function dan Paramater",
            "Array method",
            "Pengenalan DOM",
            "Belajar ES6"
        ]
    },
    {   
        "id": 3,
        "judul": "Python",
        "silabus": "6",
        "deskripsi": "Bahasa tingkat tinggi yang sangat berguna untuk membuat berbagai macam program",
        "logo": "https://img.icons8.com/color/2x/python.png",
        "pagename": "python",
        "materi": [
            "Pengenalan dan setup dasar",
            "Tipe data, Variable, dan Pengkondisian",
            "Perulangan For, While, Break, serta Continue",
            "Function dan beberapa Parameter",
            "Pengenalan Class, Variable dan Method Instance",
            "Inheritance dan Super"
        ]
    },
    {   
        "id": 4,
        "judul": "PHP",
        "silabus": "7",
        "deskripsi": "Bahasa yang digunakan untuk server side pada website",
        "logo": "https://img.icons8.com/officel/2x/php-logo.png",
        "pagename": "php",
        "materi": [
            "Pengenalan dan Hello World",
            "Variable dan Tipe Data",
            "Pengkondisian if, else if, dan else",
            "Pengulangan for, while, dan foreach",
            "function dan membuat form",
            "Pengenalan Class, Property, Method, dan Constructor",
            "Inheritance pada PHP"   
        ]
    },
    {   
        "id": 5,
        "judul": "Vue js",
        "silabus": "8",
        "deskripsi": "Sebuah framework Javascript untuk membangun interface dan SPA yang cocok untuk pemula",
        "logo": "https://img.icons8.com/color/2x/vue-js.png",
        "pagename": "vuejs",
        "materi": [
            "Perkenalan dan Instalasi",
            "Data Binding",
            "Directive dan Methods",
            "Listing Data dan Membuat Form",
            "Delete, Edit, dan Upvote",
            "Filter Data",
            "Dynamic Class",
            "Source Code"
        ]
    },
    {   
        "id": 6,
        "judul": "Node.js",
        "silabus": "5",
        "deskripsi": "Sebuah Runtime Environment pada Javscript untuk server side",
        "logo": "https://img.icons8.com/color/2x/nodejs.png",
        "pagename": "nodejs",
        "materi": [
            "Persiapan dan setup dasar",
            "Menjalankan server dan menampilkan HTML ke halaman",
            "Menyiapkan dan menggunakan Database",
            "Studi Kasus I Penambahan dan Penghapusa item",
            "Studi Kasus II Mengedit dan Memperbarui data"
        ]
    },
    {   
        "id": 7,
        "judul": "React js",
        "silabus": "6",
        "deskripsi": "Library Javascript terpopuler untuk membuat UI",
        "logo": "https://img.icons8.com/color/2x/react-native.png",
        "pagename": "reactjs",
        "materi": [
            "Pengenalan, setup dasar, pengenalan file, dan JSX",
            "Membuat State dan Event",
            "Component dan Props",
            "Lifecycle dan Event Handling",
            "Membuat Form",
            "Berpikir dalam react"
        ]
    },
    {   
        "id": 8,
        "judul": "SASS",
        "silabus": "5",
        "deskripsi": "Pre-processor CSS untuk menulis sintaks CSS seperti sebuah bahasa pemrograman",
        "logo": "https://img.icons8.com/color/2x/sass.png",
        "pagename": "sass",
        "materi": [
            "Nesting dan Variable",
            "Mixin dan Function",
            "Menggunakan Import",
            "Flow Control",
            "Membuat Website Sederhana"
        ]
    },
    {   
        "id": 9,
        "judul": "SQL",
        "silabus": "7",
        "deskripsi": "Bahasa yang digunakan untuk mengambil data pada database",
        "logo": "https://img.icons8.com/officel/2x/sql.png",
        "pagename": "sql",
        "materi": [
            "Pengenalan Database",
            "WHERE, LIKE, NOT, AND, OR",
            "ORDER BY, LIMIT, DISTINCT",
            "Function Agregat SUM, AVG, COUNT DAN MAX-MIN",
            "GROUP BY dan HAVING",
            "JOIN, LEFT JOIN, AS,",
            "INSERT, UPDATE, DELETE"
        ]
    },
    {   
        "id": 10,
        "judul": "GIT",
        "silabus": "7",
        "deskripsi": "Sebuah Version Control System untuk mengetahui perubahan source code",
        "logo": "https://img.icons8.com/color/2x/git.png",
        "pagename": "git",
        "materi": [
            "Pengenalan dan setup dasar",
            "Status, log, dan diff",
            "Add, Commit, dan Branch",
            "Remote dan Clone",
            "Alur kerja GIT",
            "Push, Pull, dan Fecth",
            "Git Ignore"
        ]
    },
    {   
        "id": 11,
        "judul": "Laravel",
        "silabus": "8",
        "deskripsi": "Framework PHP untuk memaksimalkan pengembangan website",
        "logo": "https://img.icons8.com/officel/2x/source-code.png",
        "pagename": "laravel",
        "materi": [
            "Perkenal dan Instalasi",
            "Route, Controller, dan View",
            "Error, Artisan, dan Oper Data",
            "Templating Blade",
            "Konfigurasi Database",
            "Migration dan Schema",
            "Model, View, dan Controller (MVC)",
            "Autentikasi dan Guest"
        ]
    },
    {   
        "id": 12,
        "judul": "Mongo DB",
        "silabus": "6",
        "deskripsi": "Database No-SQL yang berbasis dokumen",
        "logo": "https://img.icons8.com/color/2x/mongodb.png",
        "pagename": "mongodb",
        "materi": [
            "Pengenalan dan Installasi",
            "MongoBD Client, Database, dan Collection",
            "MongoDB Data Model dan BSON",
            "Insert dan Query Document",
            "Macam-macam Operator",
            "Updata dan Delete "
        ]
    },
    {   
        "id": 13,
        "judul": "Tailwind",
        "silabus": "7",
        "deskripsi": "Framework CSS yang memberikan class-class kecil sehingga sangat fleksibel untuk kustomisasi",
        "logo": "https://img.icons8.com/officel/2x/source-code.png",
        "pagename": "tailwind",
        "materi": [
            "Perkenalan dan setup dasar",
            "Membuat Home Page Website",
            "Responsive, Hover, dan Efek",
            "Kustomisasi Tailwind",
            "Fungsi Apply pada Tailwind",
            "Membuat Dark Mode",
            "Mengoptimasi File pada Tailwind"
        ]
    },
    {   
        "id": 14,
        "judul": "Bootstrap",
        "silabus": "5",
        "deskripsi": "Framework frontend yang telah menyediakan berbagai komponen yang siap pakai",
        "logo": "https://img.icons8.com/color/2x/bootstrap.png",
        "pagename": "bootstrap",
        "materi": [
            "Instalasi dan setup dasar",
            "Membuat Halaman Login",
            "Membuat Navigasi responsive",
            "Sistem Grid pada Bootstrap",
            "Membuat Landing Page Sederhana"
        ]
    },
    {   
        "id": 15,
        "judul": "Figma",
        "silabus": "7",
        "deskripsi": "Aplikasi berbasis web untuk mendesain tampilan website, aplikasi, dan lain-lain",
        "logo": "https://img.icons8.com/nolan/2x/web-design.png",
        "pagename": "figma",
        "materi": [
            "Perkenalan Aplikasi Figma",
            "Mempelajari Layer dan Group",
            "Text tool dan margin",
            "Image & Color Scheme",
            "Belajar UI Prototype",
            "Fungsi dan Component",
            "Membuat Website Portofolio Sederhana"
        ]
    }
]